In Class Exercise 1
…
The number of planes with age and manufacturer detail

planes%>%
  group_by(manufacturer) %>%
  summarize(count=n(),avg_age = mean(2022-year, na.rm = T))%>%
  arrange(desc(count), avg_age)

# A tibble: 35 × 3
   manufacturer                  count avg_age
   <chr>                         <int>   <dbl>
 1 BOEING                         1630    21.9
 2 AIRBUS INDUSTRIE                400    23.8
 3 BOMBARDIER INC                  368    17.5
 4 AIRBUS                          336    14.8
 5 EMBRAER                         299    18.4
 6 MCDONNELL DOUGLAS               120    32.1
 7 MCDONNELL DOUGLAS AIRCRAFT CO   103    32.3
 8 MCDONNELL DOUGLAS CORPORATION    14    30.1
 9 CANADAIR                          9    24.7
10 CESSNA                            9    49.6
# … with 25 more rows
