Shiny Assignment
…
The following object is masked from 'package:readr':

    col_factor

library(shiny)

Warning: package 'shiny' was built under R version 4.2.2

Before creating dashboard, let’s read and fix the datasets.

students <- read_excel("Shiny/foreign_students.xlsx")
saveRDS(students, file = "students.rds")
readRDS(file = "students.rds")

# A tibble: 10,461 × 7
   `Üniversite Adı`          `Üniversite Türü` `İl Adı` Uyruk  E     K     T    
   <chr>                     <chr>             <chr>    <chr>  <chr> <chr> <chr>
 1 ABDULLAH GÜL ÜNİVERSİTESİ DEVLET            KAYSERİ  AFGAN… 1     0     1    
 2 ABDULLAH GÜL ÜNİVERSİTESİ DEVLET            KAYSERİ  ALMAN… 1     0     1    
 3 ABDULLAH GÜL ÜNİVERSİTESİ DEVLET            KAYSERİ  ARNAV… 0     1     1    
 4 ABDULLAH GÜL ÜNİVERSİTESİ DEVLET            KAYSERİ  AZERB… 8     2     10   
 5 ABDULLAH GÜL ÜNİVERSİTESİ DEVLET            KAYSERİ  BANGL… 4     3     7    
 6 ABDULLAH GÜL ÜNİVERSİTESİ DEVLET            KAYSERİ  BOTSV… 1     0     1    
 7 ABDULLAH GÜL ÜNİVERSİTESİ DEVLET            KAYSERİ  BURKİ… 1     0     1    
 8 ABDULLAH GÜL ÜNİVERSİTESİ DEVLET            KAYSERİ  BÜYÜK… 1     1     2    
 9 ABDULLAH GÜL ÜNİVERSİTESİ DEVLET            KAYSERİ  CEZAY… 1     2     3    
10 ABDULLAH GÜL ÜNİVERSİTESİ DEVLET            KAYSERİ  CİBUT… 1     0     1    
# … with 10,451 more rows

new_cols <- c("university","type","province","nationality","male","female","total")
colnames(students) <- new_cols

students <- na.omit(students)

students <- students %>% mutate(`female` = as.numeric(`female`))
students <- students %>% mutate(`male` = as.numeric(`male`))
students <- students %>% mutate(`total` = as.numeric(`total`))

students

# A tibble: 10,460 × 7
   university                type   province nationality       male female total
   <chr>                     <chr>  <chr>    <chr>            <dbl>  <dbl> <dbl>
 1 ABDULLAH GÜL ÜNİVERSİTESİ DEVLET KAYSERİ  AFGANİSTAN İSLA…     1      0     1
 2 ABDULLAH GÜL ÜNİVERSİTESİ DEVLET KAYSERİ  ALMANYA FEDERAL…     1      0     1
 3 ABDULLAH GÜL ÜNİVERSİTESİ DEVLET KAYSERİ  ARNAVUTLUK CUMH…     0      1     1
 4 ABDULLAH GÜL ÜNİVERSİTESİ DEVLET KAYSERİ  AZERBAYCAN CUMH…     8      2    10
 5 ABDULLAH GÜL ÜNİVERSİTESİ DEVLET KAYSERİ  BANGLADEŞ HALK …     4      3     7
 6 ABDULLAH GÜL ÜNİVERSİTESİ DEVLET KAYSERİ  BOTSVANA CUMHUR…     1      0     1
 7 ABDULLAH GÜL ÜNİVERSİTESİ DEVLET KAYSERİ  BURKİNA FASO         1      0     1
 8 ABDULLAH GÜL ÜNİVERSİTESİ DEVLET KAYSERİ  BÜYÜK BRİTANYA …     1      1     2
 9 ABDULLAH GÜL ÜNİVERSİTESİ DEVLET KAYSERİ  CEZAYİR DEMOKRA…     1      2     3
10 ABDULLAH GÜL ÜNİVERSİTESİ DEVLET KAYSERİ  CİBUTİ CUMHURİY…     1      0     1
# … with 10,450 more rows
…
