Ali Gokmen / Peace & Trust Progress Journal - 3 Shiny Assignment
…
Let’s invoke the libraries we need in this pre-process

library(readxl)
library(tidyr)
library(tidyverse)
library(shiny)

Before creating dashboard, let’s read and fix the datasets.

students <- read_excel("Shiny/foreign_students.xlsx")
saveRDS(students, file = "students.rds")
readRDS(file = "students.rds")

# A tibble: 10,461 × 7
   `Üniversite Adı`          `Üniversite Türü` `İl Adı` Uyruk  E     K     T    
   <chr>                     <chr>             <chr>    <chr>  <chr> <chr> <chr>
 1 ABDULLAH GÜL ÜNİVERSİTESİ DEVLET            KAYSERİ  AFGAN… 1     0     1    
 2 ABDULLAH GÜL ÜNİVERSİTESİ DEVLET            KAYSERİ  ALMAN… 1     0     1    
 3 ABDULLAH GÜL ÜNİVERSİTESİ DEVLET            KAYSERİ  ARNAV… 0     1     1    
 4 ABDULLAH GÜL ÜNİVERSİTESİ DEVLET            KAYSERİ  AZERB… 8     2     10   
 5 ABDULLAH GÜL ÜNİVERSİTESİ DEVLET            KAYSERİ  BANGL… 4     3     7    
 6 ABDULLAH GÜL ÜNİVERSİTESİ DEVLET            KAYSERİ  BOTSV… 1     0     1    
 7 ABDULLAH GÜL ÜNİVERSİTESİ DEVLET            KAYSERİ  BURKİ… 1     0     1    
 8 ABDULLAH GÜL ÜNİVERSİTESİ DEVLET            KAYSERİ  BÜYÜK… 1     1     2    
 9 ABDULLAH GÜL ÜNİVERSİTESİ DEVLET            KAYSERİ  CEZAY… 1     2     3    
10 ABDULLAH GÜL ÜNİVERSİTESİ DEVLET            KAYSERİ  CİBUT… 1     0     1    
# … with 10,451 more rows
…
